<?xml version="1.0" encoding="UTF-8"?>
<svg width="60px" height="53px" viewBox="0 0 60 53" version="1.1" xmlns="http://www.w3.org/2000/svg" xmlns:xlink="http://www.w3.org/1999/xlink">
    <!-- Generator: Sketch 44.1 (41455) - http://www.bohemiancoding.com/sketch -->
    <title>单曲循环</title>
    <desc>Created with Sketch.</desc>
    <defs></defs>
    <g id="Page-1" stroke="none" stroke-width="1" fill="none" fill-rule="evenodd">
        <g id="Artboard-Copy-25" transform="translate(-1821.000000, -217.000000)" fill-rule="nonzero" fill="#000000">
            <g id="Group-4" transform="translate(1821.000000, 207.000000)">
                <g id="单曲循环" transform="translate(0.000000, 10.000000)">
                    <path d="M21.3482927,5.80682927 L43.7443902,5.80682927 L43.7443902,1.52195122 C43.7443902,0.152195122 44.6868293,-0.357073171 45.8341463,0.386341463 L56.1482927,7.04780488 C57.2956098,7.79121951 57.2839024,8.98536585 56.1190244,9.71121951 L45.857561,16.062439 C44.6926829,16.782439 43.7443902,16.2497561 43.7443902,14.8858537 L43.7443902,10.6185366 L21.3482927,10.6185366 C12.2341463,10.6185366 4.81756098,18.035122 4.81756098,27.1492683 C4.81756098,28.6595122 5.02243902,30.1463415 5.4204878,31.5804878 C5.77756098,32.862439 5.02829268,34.1912195 3.74634146,34.542439 C3.5297561,34.6009756 3.31317073,34.6302439 3.10243902,34.6302439 C2.04878049,34.6302439 1.08292683,33.9336585 0.784390244,32.8682927 C0.263414634,31.0185366 0,29.0926829 0,27.1492683 C0,21.4478049 2.21853659,16.0858537 6.25170732,12.0585366 C10.284878,8.02536585 15.6468293,5.80682927 21.3482927,5.80682927 Z M38.622439,46.6419512 L16.2263415,46.6419512 L16.2263415,50.9268293 C16.2263415,52.2965854 15.2839024,52.8058537 14.1365854,52.062439 L3.82243902,45.4009756 C2.67512195,44.657561 2.68682927,43.4634146 3.85170732,42.737561 L14.1131707,36.3804878 C15.2780488,35.6604878 16.2263415,36.1931707 16.2263415,37.5570732 L16.2263415,41.8185366 L38.622439,41.8185366 C47.7365854,41.8185366 55.1531707,34.4019512 55.1531707,25.2878049 C55.1531707,23.777561 54.9482927,22.2907317 54.5502439,20.8507317 C54.1931707,19.5687805 54.942439,18.24 56.2243902,17.8887805 C56.4409756,17.8302439 56.657561,17.8009756 56.8682927,17.8009756 C57.9219512,17.8009756 58.8878049,18.497561 59.1863415,19.5629268 C59.7014634,21.4243902 59.9590244,23.3502439 59.9590244,25.2878049 C59.9590244,30.9892683 57.7404878,36.3512195 53.7073171,40.3785366 C49.68,44.4234146 44.3239024,46.6419512 38.622439,46.6419512 L38.622439,46.6419512 Z" id="Shape"></path>
                    <path d="M29.982439,17.2273171 C25.0126829,17.2273171 20.9853659,21.2546341 20.9853659,26.2243902 C20.9853659,31.1941463 25.0126829,35.2214634 29.982439,35.2214634 C34.9521951,35.2214634 38.9795122,31.1941463 38.9795122,26.2243902 C38.9795122,21.2546341 34.9521951,17.2273171 29.982439,17.2273171 Z M31.6507317,31.0068293 L29.9297561,31.0068293 L29.9297561,24.2107317 C29.297561,24.7843902 28.5014634,25.2117073 27.5297561,25.4926829 L27.5297561,23.7834146 C27.9980488,23.6663415 28.5014634,23.4614634 29.0282927,23.1629268 C29.5609756,22.8409756 30,22.5014634 30.3512195,22.1326829 L31.644878,22.1326829 L31.644878,31.0068293 L31.6507317,31.0068293 L31.6507317,31.0068293 Z" id="Shape"></path>
                </g>
            </g>
        </g>
    </g>
</svg>