<?xml version="1.0" encoding="UTF-8"?>
<svg width="6px" height="40px" viewBox="0 0 6 40" version="1.1" xmlns="http://www.w3.org/2000/svg" xmlns:xlink="http://www.w3.org/1999/xlink">
    <!-- Generator: Sketch 44.1 (41455) - http://www.bohemiancoding.com/sketch -->
    <title>Path</title>
    <desc>Created with Sketch.</desc>
    <defs></defs>
    <g id="Page-1" stroke="none" stroke-width="1" fill="none" fill-rule="evenodd">
        <g id="pause" transform="translate(-16.000000, 0.000000)" fill-rule="nonzero" fill="#000000">
            <path d="M16.5,2.5 L16.5,37.5 C16.5,38.8807119 17.6192881,40 19,40 C20.3807119,40 21.5,38.8807119 21.5,37.5 L21.5,2.5 C21.5,1.1192881 20.3807119,0 19,0 C17.6192881,0 16.5,1.1192881 16.5,2.5 Z" id="Path"></path>
        </g>
    </g>
</svg>