<?xml version="1.0" encoding="UTF-8"?>
<svg width="30px" height="45px" viewBox="0 0 30 45" version="1.1" xmlns="http://www.w3.org/2000/svg" xmlns:xlink="http://www.w3.org/1999/xlink">
    <!-- Generator: Sketch 44.1 (41455) - http://www.bohemiancoding.com/sketch -->
    <title>Shape</title>
    <desc>Created with Sketch.</desc>
    <defs></defs>
    <g id="Page-1" stroke="none" stroke-width="1" fill="none" fill-rule="evenodd">
        <g id="Artboard-Copy-25" transform="translate(-1968.000000, -218.000000)" fill-rule="nonzero" fill="#000000">
            <g id="Group-4" transform="translate(1821.000000, 207.000000)">
                <g id="Group-3" transform="translate(147.000000, 7.000000)">
                    <g id="音量-copy" transform="translate(0.000000, 4.000000)">
                        <path d="M29.2049591,41.6328889 C29.1151345,44.5551813 27.588117,46.2019649 24.4143158,43.8066433 C19.7434386,40.2495906 15.024655,36.7524211 13.3060117,35.4769123 C11.5873684,34.2014035 9.92261988,32.794152 6.04219883,32.794152 C2.16177778,32.794152 0.586853801,30.3988304 0.359298246,28.2011228 C0.13174269,26.0034152 -5.68434189e-14,23.2128655 -5.68434189e-14,22.769731 C-5.68434189e-14,22.3265965 0.125754386,19.5240702 0.359298246,17.3323509 C0.592842105,15.1406316 2.15578947,12.7453099 6.04219883,12.7453099 C9.92860819,12.7453099 11.6113216,11.3380585 13.3239766,10.0385965 C15.0366316,8.7391345 19.7614035,5.24795322 24.4322807,1.7088655 C27.5821287,-0.68645614 29.1151345,0.960327485 29.222924,3.88261988 C29.3426901,7.77501754 29.8217544,15.8951579 29.8217544,22.7517661 C29.8217544,29.6083743 29.3127485,37.7225263 29.222924,41.6209123 L29.2049591,41.6328889 Z" id="Shape"></path>
                    </g>
                </g>
            </g>
        </g>
    </g>
</svg>