<?xml version="1.0" encoding="UTF-8"?>
<svg width="96px" height="96px" viewBox="0 0 96 96" version="1.1" xmlns="http://www.w3.org/2000/svg" xmlns:xlink="http://www.w3.org/1999/xlink">
    <!-- Generator: Sketch 43.1 (39012) - http://www.bohemiancoding.com/sketch -->
    <title>关于</title>
    <desc>Created with Sketch.</desc>
    <defs></defs>
    <g id="Page-1" stroke="none" stroke-width="1" fill="none" fill-rule="evenodd" opacity="0.7">
        <g id="Artboard-Copy-22" transform="translate(-3671.000000, -1917.000000)">
            <g id="关于" transform="translate(3674.000000, 1920.000000)">
                <circle id="Oval-Copy-2" stroke="#FFFFFF" stroke-width="5" cx="45" cy="45" r="45"></circle>
                <path d="M71.9874033,30.6110371 C71.9872332,31.6047643 71.1816105,32.4102492 70.1878832,32.4102492 C69.194156,32.4102492 68.3885332,31.6047643 68.3883631,30.6110371 L68.3883631,21.6134364 L59.3907624,21.6134364 C58.3970352,21.6132663 57.5915503,20.8076435 57.5915503,19.8139163 C57.5915503,18.8201891 58.3970352,18.0145663 59.3907624,18.0143962 L70.3102506,18 C70.7582347,17.9999997 71.1878443,18.1780838 71.5044481,18.4950251 C71.8210519,18.8119664 71.9986781,19.2417655 71.9982005,19.6897494 L71.9874033,30.6110371 Z M30.5984404,21.6134364 L21.6008398,21.6134364 L21.6008398,30.6110371 C21.6006696,31.6047643 20.7950469,32.4102492 19.8013196,32.4102492 C18.8075924,32.4102492 18.0019696,31.6047643 18.0017995,30.6110371 L18.0017995,19.6897494 C18.0013219,19.2417655 18.1789481,18.8119664 18.4955519,18.4950251 C18.8121557,18.1780838 19.2417653,17.9999997 19.6897494,18 L30.5984404,18.0143962 C31.5921676,18.0145663 32.3976525,18.8201891 32.3976525,19.8139163 C32.3976525,20.8076435 31.5921676,21.6132663 30.5984404,21.6134364 Z M19.8013197,57.603839 C20.7764801,57.6475678 21.557111,58.4281987 21.6008398,59.4033591 L21.6008398,68.4009597 L30.5984404,68.4009597 C31.5921676,68.4011299 32.3976525,69.2067526 32.3976525,70.2004799 C32.3976525,71.1942071 31.5921676,71.9998299 30.5984404,72 L19.6879499,72 C18.7557209,72 18,71.2442791 18,70.3120501 L18,59.4033591 C18.0437998,58.4275396 18.8254568,57.6466635 19.8013197,57.603839 L19.8013197,57.603839 Z M26.9994002,64.8019195 C26.023871,64.759028 25.2427715,63.9779286 25.19988,63.0023993 L25.19988,27.0119968 C25.2427715,26.0364676 26.023871,25.2553682 26.9994002,25.2124767 L62.9898027,25.2124767 C63.9653319,25.2553682 64.7464313,26.0364676 64.7893228,27.0119968 L64.7893228,63.0023993 C64.7464313,63.9779286 63.9653319,64.759028 62.9898027,64.8019195 L26.9994002,64.8019195 Z M59.3907624,68.4009597 L68.3883631,68.4009597 L68.3883631,59.4033591 C68.3885332,58.4096319 69.194156,57.604147 70.1878832,57.604147 C71.1816105,57.604147 71.9872332,58.4096319 71.9874033,59.4033591 L71.9874033,70.2004798 C71.9445118,71.176009 71.1634124,71.9571085 70.1878832,72 L59.3907624,72 C58.3970352,71.9998299 57.5915503,71.1942071 57.5915503,70.2004799 C57.5915503,69.2067526 58.3970352,68.4011299 59.3907624,68.4009597 L59.3907624,68.4009597 Z" id="Shape" fill="#FFFFFF" fill-rule="nonzero"></path>
            </g>
        </g>
    </g>
</svg>