<?xml version="1.0" encoding="UTF-8"?>
<svg width="40px" height="40px" viewBox="0 0 40 40" version="1.1" xmlns="http://www.w3.org/2000/svg" xmlns:xlink="http://www.w3.org/1999/xlink">
    <!-- Generator: Sketch 43.1 (39012) - http://www.bohemiancoding.com/sketch -->
    <title>Combined Shape Copy</title>
    <desc>Created with Sketch.</desc>
    <defs></defs>
    <g id="Page-1" stroke="none" stroke-width="1" fill="none" fill-rule="evenodd">
        <g id="Artboard-Copy-24" transform="translate(-3619.000000, -120.000000)" fill="#A79394">
            <path d="M3639,160 C3627.95431,160 3619,151.045695 3619,140 C3619,128.954305 3627.95431,120 3639,120 C3650.04569,120 3659,128.954305 3659,140 C3659,151.045695 3650.04569,160 3639,160 Z M3639.11964,142.665644 C3639.11964,141.560938 3638.22257,140.665396 3637.12651,140.665396 L3624.85822,140.665396 C3623.75745,140.665396 3623.50229,141.284517 3624.29333,142.053115 L3637.6914,155.071098 C3638.48019,155.837514 3639.11964,155.564442 3639.11964,154.458569 L3639.11964,142.665644 Z M3654.26142,139.79342 C3655.36219,139.79342 3655.61734,139.174299 3654.82631,138.405701 L3641.42824,125.387719 C3640.63944,124.621303 3640,124.894374 3640,126.000248 L3640,137.793172 C3640,138.897879 3640.89707,139.79342 3641.99313,139.79342 L3654.26142,139.79342 Z" id="Combined-Shape-Copy"></path>
        </g>
    </g>
</svg>