<?xml version="1.0" encoding="UTF-8"?>
<svg width="40px" height="40px" viewBox="0 0 40 40" version="1.1" xmlns="http://www.w3.org/2000/svg" xmlns:xlink="http://www.w3.org/1999/xlink">
    <!-- Generator: Sketch 43.1 (39012) - http://www.bohemiancoding.com/sketch -->
    <title>Combined Shape Copy</title>
    <desc>Created with Sketch.</desc>
    <defs></defs>
    <g id="Page-1" stroke="none" stroke-width="1" fill="none" fill-rule="evenodd">
        <g id="Artboard-Copy-24" transform="translate(-3619.000000, -120.000000)" fill="#A79394">
            <path d="M3639,160 C3627.95431,160 3619,151.045695 3619,140 C3619,128.954305 3627.95431,120 3639,120 C3650.04569,120 3659,128.954305 3659,140 C3659,151.045695 3650.04569,160 3639,160 Z M3629.32896,148.397045 C3629.32896,149.501752 3630.22603,150.397293 3631.32209,150.397293 L3643.59038,150.397293 C3644.69115,150.397293 3644.94631,149.778172 3644.15527,149.009574 L3630.7572,135.991592 C3629.9684,135.225176 3629.32896,135.498247 3629.32896,136.604121 L3629.32896,148.397045 Z M3634.54411,130.307845 C3633.44334,130.307845 3633.18818,130.926966 3633.97922,131.695564 L3647.37729,144.713547 C3648.16608,145.479963 3648.80552,145.206891 3648.80552,144.101018 L3648.80552,132.308093 C3648.80552,131.203387 3647.90846,130.307845 3646.8124,130.307845 L3634.54411,130.307845 Z" id="Combined-Shape-Copy"></path>
        </g>
    </g>
</svg>